% Fur Elise
E5 q
D5# q
E5 q
D5# q
E5 q
B4 q
D5 q
C5 q
A4 q
E3 q
A3 q
C4 q
E4 q
A4 q
B4 q
G3# q
B3 q
E4 q
G4# q
B4 q
C5 q
E3 q
A3 q
E4 q
E5 q
D5# q
E5 q
D5# q
E5 q
B4 q
D5 q
C5 q
A4 q
E3 q
A3 q
C4 q
E4 q
A4 q
B4 q
G3# q
B3 q
E4 q
C5 q
B4 q
A4 c
Rest q
B4 q
C5 q
D5 q
E5 dc 
G4 q
F5 q
E5 q
D5 dc 
F4 q
E5 q
D5 q
C5 dc 
E4 q
D5 q
C5 q

